{
  "EDITOR_STATE": {
    "allProjectFiles": {
      "c53d2836-80d9-4f06-8255-e0bed2e99477": {
        "id": "c53d2836-80d9-4f06-8255-e0bed2e99477",
        "parent": null,
        "name": "seoulrds",
        "type": "DIRECTORY",
        "isDirectory": true,
        "children": [
          "07a80c62-befa-4a0d-84c3-7ef7ff2861ff",
          "4fe2f5a4-1fc0-4bf4-9fbf-b2fc8e1c176c"
        ],
        "isRemovable": false,
        "filePath": "seoulrds"
      },
      "07a80c62-befa-4a0d-84c3-7ef7ff2861ff": {
        "id": "07a80c62-befa-4a0d-84c3-7ef7ff2861ff",
        "parent": "c53d2836-80d9-4f06-8255-e0bed2e99477",
        "name": "lambda.js",
        "type": "JS_LAMBDA",
        "isDirectory": false,
        "children": [],
        "isRemovable": true,
        "filePath": "seoulrds/lambda.js",
        "code": "let SL_AWS = require('slappforge-sdk-aws');\nlet connectionManager = require('./ConnectionManager');\nconst rds = new SL_AWS.RDS(connectionManager);\n\nexports.handler = function (event, context, callback) {\n\n    // You can pass the existing connection to this function.\n    // A new connection will be created if it's not present as the third param \n    // You must always end/destroy the DB connection after it's used\n    rds.query({\n        instanceIdentifier: 'k',\n        query: 'INSERT INTO Test (ID);',\n        inserts: [1]\n    }, function (error, results, connection) {\n        if (error) {\n            console.log(\"Error occurred\");\n            throw error;\n        } else {\n            console.log(\"Success\")\n            console.log(results);\n        }\n\n        connection.end();\n    });\n\n    callback(null, { \"message\": \"Successfully executed\" });\n}",
        "config": {
          "runtime": "nodejs8.10",
          "handler": "handler",
          "timeout": 60,
          "memory": 128,
          "layers": []
        },
        "triggers": []
      },
      "4fe2f5a4-1fc0-4bf4-9fbf-b2fc8e1c176c": {
        "id": "4fe2f5a4-1fc0-4bf4-9fbf-b2fc8e1c176c",
        "parent": "c53d2836-80d9-4f06-8255-e0bed2e99477",
        "name": "ConnectionManager.js",
        "type": "JS_FILE",
        "isDirectory": false,
        "children": [],
        "isRemovable": true,
        "filePath": "seoulrds/ConnectionManager.js",
        "code": "module.exports = function() {\n    this.dbConnections = [];\n\n    this.dbConnections[\"k\"] = {\n        host: process.env.EndPoint_rdsK,\n        port: process.env.Port_rdsK,\n        user: process.env.User_rdsK,\n        password: process.env.Password_rdsK,\n        database: \"k\"\n    };\n};"
      }
    },
    "deletedFiles": [],
    "rootNode": "c53d2836-80d9-4f06-8255-e0bed2e99477",
    "openFiles": [
      "07a80c62-befa-4a0d-84c3-7ef7ff2861ff"
    ],
    "currentFileId": "07a80c62-befa-4a0d-84c3-7ef7ff2861ff",
    "resources": {
      "rds-k": {
        "name": "rds-k",
        "type": "RDS",
        "config": {
          "editMode": false,
          "operation": 0,
          "rdsInstance": {
            "rdsEngineType": "mysql",
            "rdsEdition": "",
            "rdsInstanceSpec": {
              "dbInstanceClass": "db.t2.micro",
              "dbLicenseModel": "general-public-license",
              "dbEngineVersion": "5.7.19"
            },
            "rdsSetting": {
              "instanceIdentifier": "k",
              "masterUsername": "l",
              "masterPassword": "Test#123"
            },
            "rdsDBOptions": {
              "dbName": "k",
              "dbPort": "7898"
            },
            "rdsInstanceArn": "",
            "Host": "",
            "doesExist": false,
            "initializationQuery": "CREATE TABLE Test (ID int(5));",
            "alreadyDeployed": false
          },
          "rdsInstanceResources": [],
          "projectRegion": "ap-northeast-2",
          "mode": 0,
          "additionalFiles": [],
          "params": {
            "query": "INSERT INTO Test (ID);",
            "inserts": "1"
          },
          "isGlobalEditMode": false,
          "enableInject": true,
          "isNewFromGlobal": false
        }
      }
    },
    "customTemplate": {
      "dialect": null,
      "definitions": {}
    },
    "envVariables": [
      {
        "lambdaId": "all",
        "varKey": "SIGMA_AWS_ACC_ID",
        "varValue": null,
        "shouldPersist": false,
        "displayOnly": false,
        "editable": false
      }
    ],
    "packageJSON": {
      "dependencies": {
        "slappforge-sdk-aws": {
          "name": "slappforge-sdk-aws",
          "language": "javascript",
          "version": "0.0.5",
          "dev": false,
          "notRemovable": false
        }
      }
    }
  },
  "PROJECT_META": {
    "projectName": "seoulrds",
    "projectDescription": "",
    "projectVersion": "1.0.0",
    "projectRegion": "ap-northeast-2",
    "platform": "AWS",
    "platformRegions": {},
    "lastSave": 1562248294711
  },
  "VCS_STATE": {
    "provider": "BitBucket",
    "repo": {
      "name": "seoulrds",
      "url": "https://bitbucket.org/KumudikaR/seoulrds"
    }
  }
}